{
  "id": "fake-cycle",
  "type": "Cycle",
  "name": "fake cycle",
  "dataPrivate": false,
  "functionalUnit": "1 ha",
  "endDate": "2009",
  "cycleDuration": 365,
  "defaultSource": {
    "id": "fake-source",
    "type": "Source"
  },
  "site": {
    "id": "fake-site",
    "type": "Site"
  },
  "inputs": [
    {
      "@type": "Input",
      "term": {
        "@type": "Term",
        "@id": "woodFuel",
        "termType": "fuel"
      },
      "properties": [
        {
          "@type": "Property",
          "term": {
            "@type": "Term",
            "@id": "dryMatter",
            "units": "%"
          },
          "value": 60
        }
      ],
      "value": [
        10
      ]
    },
    {
      "@type": "Input",
      "term": {
        "@type": "Term",
        "@id": "woodFuel",
        "termType": "fuel"
      },
      "value": [
        100
      ],
      "operation": {
        "@type": "Term",
        "@id": "dryingMachineUnspecified",
        "termType": "operation"
      }
    },
    {
      "@type": "Input",
      "term": {
        "@type": "Term",
        "@id": "woodPellets",
        "termType": "fuel"
      },
      "properties": [
        {
          "@type": "Property",
          "term": {
            "@type": "Term",
            "@id": "dryMatter",
            "units": "%"
          },
          "value": 40
        }
      ],
      "value": [
        10
      ]
    }
  ],
  "completeness": {
    "@type": "Completeness",
    "electricityFuel": true,
    "material": true,
    "fertiliser": true,
    "other": true,
    "pesticidesAntibiotics": true,
    "soilAmendments": true,
    "water": true,
    "products": true,
    "cropResidue": true,
    "animalFeed": true,
    "transport": false,
    "excreta": true,
    "waste": true,
    "liveAnimals": true,
    "operations": true
  },
  "defaultMethodClassification": "modelled",
  "defaultMethodClassificationDescription": "description"
}
