{
  "@type": "Indicator",
  "term": {
    "@type": "Term",
    "@id": "terrestrialEcotoxicityPotential14Dcbeq"
  },
  "methodModel": {
    "@type": "Term",
    "@id": "recipe2016Egalitarian"
  },
  "value": 0.0009253602787173662
}
