[
  {
    "@type": "Cycle",
    "@id": "cycle_1959",
    "endDate": "1959-12-31",
    "products": [
      {
        "@type": "Product",
        "term": {
          "@type": "Term",
          "@id": "aboveGroundCropResidueLeftOnField",
          "termType": "cropResidue"
        },
        "value": [
          3568.6343303008707
        ],
        "properties": [
          {
            "@type": "Property",
            "term": {
              "@type": "Term",
              "@id": "carbonContent",
              "termType": "property"
            },
            "value": 50
          },
          {
            "@type": "Property",
            "term": {
              "@type": "Term",
              "@id": "nitrogenContent",
              "termType": "property"
            },
            "value": 2.1
          },
          {
            "@type": "Property",
            "term": {
              "@type": "Term",
              "@id": "ligninContent",
              "termType": "property"
            },
            "value": 11.1
          }
        ]
      },
      {
        "@type": "Product",
        "term": {
          "@type": "Term",
          "@id": "belowGroundCropResidue",
          "termType": "cropResidue"
        },
        "value": [
          3568.6343303008707
        ],
        "properties": [
          {
            "@type": "Property",
            "term": {
              "@type": "Term",
              "@id": "carbonContent",
              "termType": "property"
            },
            "value": 50
          },
          {
            "@type": "Property",
            "term": {
              "@type": "Term",
              "@id": "nitrogenContent",
              "termType": "property"
            },
            "value": 2.1
          },
          {
            "@type": "Property",
            "term": {
              "@type": "Term",
              "@id": "ligninContent",
              "termType": "property"
            },
            "value": 11.1
          }
        ]
      }
    ],
    "site": {
      "@type": "Site",
      "@id": "site"
    },
    "functionalUnit": "1 ha",
    "defaultMethodClassification": "modelled",
    "defaultMethodClassificationDescription": "fake cycle for testing purpose",
    "completeness": {
      "@type": "Completeness",
      "operations": false,
      "electricityFuel": false,
      "material": false,
      "transport": false,
      "fertiliser": false,
      "soilAmendments": true,
      "pesticidesAntibiotics": false,
      "water": true,
      "animalFeed": true,
      "liveAnimals": true,
      "other": false,
      "products": true,
      "cropResidue": true,
      "excreta": false,
      "waste": false
    },
    "dataPrivate": true
  },
  {
    "@type": "Cycle",
    "@id": "cycle_1960",
    "endDate": "1960-12-31",
    "products": [
      {
        "@type": "Product",
        "term": {
          "@type": "Term",
          "@id": "aboveGroundCropResidueLeftOnField",
          "termType": "cropResidue"
        },
        "value": [
          3805.034324964455
        ],
        "properties": [
          {
            "@type": "Property",
            "term": {
              "@type": "Term",
              "@id": "carbonContent",
              "termType": "property"
            },
            "value": 50
          },
          {
            "@type": "Property",
            "term": {
              "@type": "Term",
              "@id": "nitrogenContent",
              "termType": "property"
            },
            "value": 2.1
          },
          {
            "@type": "Property",
            "term": {
              "@type": "Term",
              "@id": "ligninContent",
              "termType": "property"
            },
            "value": 11.1
          }
        ]
      },
      {
        "@type": "Product",
        "term": {
          "@type": "Term",
          "@id": "belowGroundCropResidue",
          "termType": "cropResidue"
        },
        "value": [
          3805.034324964455
        ],
        "properties": [
          {
            "@type": "Property",
            "term": {
              "@type": "Term",
              "@id": "carbonContent",
              "termType": "property"
            },
            "value": 50
          },
          {
            "@type": "Property",
            "term": {
              "@type": "Term",
              "@id": "nitrogenContent",
              "termType": "property"
            },
            "value": 2.1
          },
          {
            "@type": "Property",
            "term": {
              "@type": "Term",
              "@id": "ligninContent",
              "termType": "property"
            },
            "value": 11.1
          }
        ]
      }
    ],
    "site": {
      "@type": "Site",
      "@id": "site"
    },
    "functionalUnit": "1 ha",
    "defaultMethodClassification": "modelled",
    "defaultMethodClassificationDescription": "fake cycle for testing purpose",
    "completeness": {
      "@type": "Completeness",
      "operations": false,
      "electricityFuel": false,
      "material": false,
      "transport": false,
      "fertiliser": false,
      "soilAmendments": true,
      "pesticidesAntibiotics": false,
      "water": true,
      "animalFeed": true,
      "liveAnimals": true,
      "other": false,
      "products": true,
      "cropResidue": true,
      "excreta": false,
      "waste": false
    },
    "dataPrivate": true
  },
  {
    "@type": "Cycle",
    "@id": "cycle_1961",
    "endDate": "1961-12-31",
    "products": [
      {
        "@type": "Product",
        "term": {
          "@type": "Term",
          "@id": "aboveGroundCropResidueLeftOnField",
          "termType": "cropResidue"
        },
        "value": [
          3718.2218235579207
        ],
        "properties": [
          {
            "@type": "Property",
            "term": {
              "@type": "Term",
              "@id": "carbonContent",
              "termType": "property"
            },
            "value": 50
          },
          {
            "@type": "Property",
            "term": {
              "@type": "Term",
              "@id": "nitrogenContent",
              "termType": "property"
            },
            "value": 2.1
          },
          {
            "@type": "Property",
            "term": {
              "@type": "Term",
              "@id": "ligninContent",
              "termType": "property"
            },
            "value": 11.1
          }
        ]
      },
      {
        "@type": "Product",
        "term": {
          "@type": "Term",
          "@id": "belowGroundCropResidue",
          "termType": "cropResidue"
        },
        "value": [
          3718.2218235579207
        ],
        "properties": [
          {
            "@type": "Property",
            "term": {
              "@type": "Term",
              "@id": "carbonContent",
              "termType": "property"
            },
            "value": 50
          },
          {
            "@type": "Property",
            "term": {
              "@type": "Term",
              "@id": "nitrogenContent",
              "termType": "property"
            },
            "value": 2.1
          },
          {
            "@type": "Property",
            "term": {
              "@type": "Term",
              "@id": "ligninContent",
              "termType": "property"
            },
            "value": 11.1
          }
        ]
      }
    ],
    "site": {
      "@type": "Site",
      "@id": "site"
    },
    "functionalUnit": "1 ha",
    "defaultMethodClassification": "modelled",
    "defaultMethodClassificationDescription": "fake cycle for testing purpose",
    "completeness": {
      "@type": "Completeness",
      "operations": false,
      "electricityFuel": false,
      "material": false,
      "transport": false,
      "fertiliser": false,
      "soilAmendments": true,
      "pesticidesAntibiotics": false,
      "water": true,
      "animalFeed": true,
      "liveAnimals": true,
      "other": false,
      "products": true,
      "cropResidue": true,
      "excreta": false,
      "waste": false
    },
    "dataPrivate": true
  },
  {
    "@type": "Cycle",
    "@id": "cycle_1962",
    "endDate": "1962-12-31",
    "products": [
      {
        "@type": "Product",
        "term": {
          "@type": "Term",
          "@id": "aboveGroundCropResidueLeftOnField",
          "termType": "cropResidue"
        },
        "value": [
          3096.251862302981
        ],
        "properties": [
          {
            "@type": "Property",
            "term": {
              "@type": "Term",
              "@id": "carbonContent",
              "termType": "property"
            },
            "value": 50
          },
          {
            "@type": "Property",
            "term": {
              "@type": "Term",
              "@id": "nitrogenContent",
              "termType": "property"
            },
            "value": 2.1
          },
          {
            "@type": "Property",
            "term": {
              "@type": "Term",
              "@id": "ligninContent",
              "termType": "property"
            },
            "value": 11.1
          }
        ]
      },
      {
        "@type": "Product",
        "term": {
          "@type": "Term",
          "@id": "belowGroundCropResidue",
          "termType": "cropResidue"
        },
        "value": [
          3096.251862302981
        ],
        "properties": [
          {
            "@type": "Property",
            "term": {
              "@type": "Term",
              "@id": "carbonContent",
              "termType": "property"
            },
            "value": 50
          },
          {
            "@type": "Property",
            "term": {
              "@type": "Term",
              "@id": "nitrogenContent",
              "termType": "property"
            },
            "value": 2.1
          },
          {
            "@type": "Property",
            "term": {
              "@type": "Term",
              "@id": "ligninContent",
              "termType": "property"
            },
            "value": 11.1
          }
        ]
      }
    ],
    "site": {
      "@type": "Site",
      "@id": "site"
    },
    "functionalUnit": "1 ha",
    "defaultMethodClassification": "modelled",
    "defaultMethodClassificationDescription": "fake cycle for testing purpose",
    "completeness": {
      "@type": "Completeness",
      "operations": false,
      "electricityFuel": false,
      "material": false,
      "transport": false,
      "fertiliser": false,
      "soilAmendments": true,
      "pesticidesAntibiotics": false,
      "water": true,
      "animalFeed": true,
      "liveAnimals": true,
      "other": false,
      "products": true,
      "cropResidue": true,
      "excreta": false,
      "waste": false
    },
    "dataPrivate": true
  },
  {
    "@type": "Cycle",
    "@id": "cycle_1963",
    "endDate": "1963-12-31",
    "products": [
      {
        "@type": "Product",
        "term": {
          "@type": "Term",
          "@id": "aboveGroundCropResidueLeftOnField",
          "termType": "cropResidue"
        },
        "value": [
          3701.547152705524
        ],
        "properties": [
          {
            "@type": "Property",
            "term": {
              "@type": "Term",
              "@id": "carbonContent",
              "termType": "property"
            },
            "value": 50
          },
          {
            "@type": "Property",
            "term": {
              "@type": "Term",
              "@id": "nitrogenContent",
              "termType": "property"
            },
            "value": 2.1
          },
          {
            "@type": "Property",
            "term": {
              "@type": "Term",
              "@id": "ligninContent",
              "termType": "property"
            },
            "value": 11.1
          }
        ]
      },
      {
        "@type": "Product",
        "term": {
          "@type": "Term",
          "@id": "belowGroundCropResidue",
          "termType": "cropResidue"
        },
        "value": [
          3701.547152705524
        ],
        "properties": [
          {
            "@type": "Property",
            "term": {
              "@type": "Term",
              "@id": "carbonContent",
              "termType": "property"
            },
            "value": 50
          },
          {
            "@type": "Property",
            "term": {
              "@type": "Term",
              "@id": "nitrogenContent",
              "termType": "property"
            },
            "value": 2.1
          },
          {
            "@type": "Property",
            "term": {
              "@type": "Term",
              "@id": "ligninContent",
              "termType": "property"
            },
            "value": 11.1
          }
        ]
      }
    ],
    "site": {
      "@type": "Site",
      "@id": "site"
    },
    "functionalUnit": "1 ha",
    "defaultMethodClassification": "modelled",
    "defaultMethodClassificationDescription": "fake cycle for testing purpose",
    "completeness": {
      "@type": "Completeness",
      "operations": false,
      "electricityFuel": false,
      "material": false,
      "transport": false,
      "fertiliser": false,
      "soilAmendments": true,
      "pesticidesAntibiotics": false,
      "water": true,
      "animalFeed": true,
      "liveAnimals": true,
      "other": false,
      "products": true,
      "cropResidue": true,
      "excreta": false,
      "waste": false
    },
    "dataPrivate": true
  },
  {
    "@type": "Cycle",
    "@id": "cycle_1964",
    "endDate": "1964-12-31",
    "products": [
      {
        "@type": "Product",
        "term": {
          "@type": "Term",
          "@id": "aboveGroundCropResidueLeftOnField",
          "termType": "cropResidue"
        },
        "value": [
          3635.3440163957166
        ],
        "properties": [
          {
            "@type": "Property",
            "term": {
              "@type": "Term",
              "@id": "carbonContent",
              "termType": "property"
            },
            "value": 50
          },
          {
            "@type": "Property",
            "term": {
              "@type": "Term",
              "@id": "nitrogenContent",
              "termType": "property"
            },
            "value": 2.1
          },
          {
            "@type": "Property",
            "term": {
              "@type": "Term",
              "@id": "ligninContent",
              "termType": "property"
            },
            "value": 11.1
          }
        ]
      },
      {
        "@type": "Product",
        "term": {
          "@type": "Term",
          "@id": "belowGroundCropResidue",
          "termType": "cropResidue"
        },
        "value": [
          3635.3440163957166
        ],
        "properties": [
          {
            "@type": "Property",
            "term": {
              "@type": "Term",
              "@id": "carbonContent",
              "termType": "property"
            },
            "value": 50
          },
          {
            "@type": "Property",
            "term": {
              "@type": "Term",
              "@id": "nitrogenContent",
              "termType": "property"
            },
            "value": 2.1
          },
          {
            "@type": "Property",
            "term": {
              "@type": "Term",
              "@id": "ligninContent",
              "termType": "property"
            },
            "value": 11.1
          }
        ]
      }
    ],
    "site": {
      "@type": "Site",
      "@id": "site"
    },
    "functionalUnit": "1 ha",
    "defaultMethodClassification": "modelled",
    "defaultMethodClassificationDescription": "fake cycle for testing purpose",
    "completeness": {
      "@type": "Completeness",
      "operations": false,
      "electricityFuel": false,
      "material": false,
      "transport": false,
      "fertiliser": false,
      "soilAmendments": true,
      "pesticidesAntibiotics": false,
      "water": true,
      "animalFeed": true,
      "liveAnimals": true,
      "other": false,
      "products": true,
      "cropResidue": true,
      "excreta": false,
      "waste": false
    },
    "dataPrivate": true
  },
  {
    "@type": "Cycle",
    "@id": "cycle_1965",
    "endDate": "1965-12-31",
    "products": [
      {
        "@type": "Product",
        "term": {
          "@type": "Term",
          "@id": "aboveGroundCropResidueLeftOnField",
          "termType": "cropResidue"
        },
        "value": [
          3805.034324964455
        ],
        "properties": [
          {
            "@type": "Property",
            "term": {
              "@type": "Term",
              "@id": "carbonContent",
              "termType": "property"
            },
            "value": 50
          },
          {
            "@type": "Property",
            "term": {
              "@type": "Term",
              "@id": "nitrogenContent",
              "termType": "property"
            },
            "value": 2.1
          },
          {
            "@type": "Property",
            "term": {
              "@type": "Term",
              "@id": "ligninContent",
              "termType": "property"
            },
            "value": 11.1
          }
        ]
      },
      {
        "@type": "Product",
        "term": {
          "@type": "Term",
          "@id": "belowGroundCropResidue",
          "termType": "cropResidue"
        },
        "value": [
          3805.034324964455
        ],
        "properties": [
          {
            "@type": "Property",
            "term": {
              "@type": "Term",
              "@id": "carbonContent",
              "termType": "property"
            },
            "value": 50
          },
          {
            "@type": "Property",
            "term": {
              "@type": "Term",
              "@id": "nitrogenContent",
              "termType": "property"
            },
            "value": 2.1
          },
          {
            "@type": "Property",
            "term": {
              "@type": "Term",
              "@id": "ligninContent",
              "termType": "property"
            },
            "value": 11.1
          }
        ]
      }
    ],
    "site": {
      "@type": "Site",
      "@id": "site"
    },
    "functionalUnit": "1 ha",
    "defaultMethodClassification": "modelled",
    "defaultMethodClassificationDescription": "fake cycle for testing purpose",
    "completeness": {
      "@type": "Completeness",
      "operations": false,
      "electricityFuel": false,
      "material": false,
      "transport": false,
      "fertiliser": false,
      "soilAmendments": true,
      "pesticidesAntibiotics": false,
      "water": true,
      "animalFeed": true,
      "liveAnimals": true,
      "other": false,
      "products": true,
      "cropResidue": true,
      "excreta": false,
      "waste": false
    },
    "dataPrivate": true
  },
  {
    "@type": "Cycle",
    "@id": "cycle_1966",
    "endDate": "1966-12-31",
    "products": [
      {
        "@type": "Product",
        "term": {
          "@type": "Term",
          "@id": "aboveGroundCropResidueLeftOnField",
          "termType": "cropResidue"
        },
        "value": [
          2766.341498446714
        ],
        "properties": [
          {
            "@type": "Property",
            "term": {
              "@type": "Term",
              "@id": "carbonContent",
              "termType": "property"
            },
            "value": 50
          },
          {
            "@type": "Property",
            "term": {
              "@type": "Term",
              "@id": "nitrogenContent",
              "termType": "property"
            },
            "value": 2.1
          },
          {
            "@type": "Property",
            "term": {
              "@type": "Term",
              "@id": "ligninContent",
              "termType": "property"
            },
            "value": 11.1
          }
        ]
      },
      {
        "@type": "Product",
        "term": {
          "@type": "Term",
          "@id": "belowGroundCropResidue",
          "termType": "cropResidue"
        },
        "value": [
          2766.341498446714
        ],
        "properties": [
          {
            "@type": "Property",
            "term": {
              "@type": "Term",
              "@id": "carbonContent",
              "termType": "property"
            },
            "value": 50
          },
          {
            "@type": "Property",
            "term": {
              "@type": "Term",
              "@id": "nitrogenContent",
              "termType": "property"
            },
            "value": 2.1
          },
          {
            "@type": "Property",
            "term": {
              "@type": "Term",
              "@id": "ligninContent",
              "termType": "property"
            },
            "value": 11.1
          }
        ]
      }
    ],
    "site": {
      "@type": "Site",
      "@id": "site"
    },
    "functionalUnit": "1 ha",
    "defaultMethodClassification": "modelled",
    "defaultMethodClassificationDescription": "fake cycle for testing purpose",
    "completeness": {
      "@type": "Completeness",
      "operations": false,
      "electricityFuel": false,
      "material": false,
      "transport": false,
      "fertiliser": false,
      "soilAmendments": true,
      "pesticidesAntibiotics": false,
      "water": true,
      "animalFeed": true,
      "liveAnimals": true,
      "other": false,
      "products": true,
      "cropResidue": true,
      "excreta": false,
      "waste": false
    },
    "dataPrivate": true
  },
  {
    "@type": "Cycle",
    "@id": "cycle_1967",
    "endDate": "1967-12-31",
    "products": [
      {
        "@type": "Product",
        "term": {
          "@type": "Term",
          "@id": "aboveGroundCropResidueLeftOnField",
          "termType": "cropResidue"
        },
        "value": [
          3119.9776030680205
        ],
        "properties": [
          {
            "@type": "Property",
            "term": {
              "@type": "Term",
              "@id": "carbonContent",
              "termType": "property"
            },
            "value": 50
          },
          {
            "@type": "Property",
            "term": {
              "@type": "Term",
              "@id": "nitrogenContent",
              "termType": "property"
            },
            "value": 2.1
          },
          {
            "@type": "Property",
            "term": {
              "@type": "Term",
              "@id": "ligninContent",
              "termType": "property"
            },
            "value": 11.1
          }
        ]
      },
      {
        "@type": "Product",
        "term": {
          "@type": "Term",
          "@id": "belowGroundCropResidue",
          "termType": "cropResidue"
        },
        "value": [
          3119.9776030680205
        ],
        "properties": [
          {
            "@type": "Property",
            "term": {
              "@type": "Term",
              "@id": "carbonContent",
              "termType": "property"
            },
            "value": 50
          },
          {
            "@type": "Property",
            "term": {
              "@type": "Term",
              "@id": "nitrogenContent",
              "termType": "property"
            },
            "value": 2.1
          },
          {
            "@type": "Property",
            "term": {
              "@type": "Term",
              "@id": "ligninContent",
              "termType": "property"
            },
            "value": 11.1
          }
        ]
      }
    ],
    "site": {
      "@type": "Site",
      "@id": "site"
    },
    "functionalUnit": "1 ha",
    "defaultMethodClassification": "modelled",
    "defaultMethodClassificationDescription": "fake cycle for testing purpose",
    "completeness": {
      "@type": "Completeness",
      "operations": false,
      "electricityFuel": false,
      "material": false,
      "transport": false,
      "fertiliser": false,
      "soilAmendments": true,
      "pesticidesAntibiotics": false,
      "water": true,
      "animalFeed": true,
      "liveAnimals": true,
      "other": false,
      "products": true,
      "cropResidue": true,
      "excreta": false,
      "waste": false
    },
    "dataPrivate": true
  },
  {
    "@type": "Cycle",
    "@id": "cycle_1968",
    "endDate": "1968-12-31",
    "products": [
      {
        "@type": "Product",
        "term": {
          "@type": "Term",
          "@id": "aboveGroundCropResidueLeftOnField",
          "termType": "cropResidue"
        },
        "value": [
          3200.5172384627103
        ],
        "properties": [
          {
            "@type": "Property",
            "term": {
              "@type": "Term",
              "@id": "carbonContent",
              "termType": "property"
            },
            "value": 50
          },
          {
            "@type": "Property",
            "term": {
              "@type": "Term",
              "@id": "nitrogenContent",
              "termType": "property"
            },
            "value": 2.1
          },
          {
            "@type": "Property",
            "term": {
              "@type": "Term",
              "@id": "ligninContent",
              "termType": "property"
            },
            "value": 11.1
          }
        ]
      },
      {
        "@type": "Product",
        "term": {
          "@type": "Term",
          "@id": "belowGroundCropResidue",
          "termType": "cropResidue"
        },
        "value": [
          3200.5172384627103
        ],
        "properties": [
          {
            "@type": "Property",
            "term": {
              "@type": "Term",
              "@id": "carbonContent",
              "termType": "property"
            },
            "value": 50
          },
          {
            "@type": "Property",
            "term": {
              "@type": "Term",
              "@id": "nitrogenContent",
              "termType": "property"
            },
            "value": 2.1
          },
          {
            "@type": "Property",
            "term": {
              "@type": "Term",
              "@id": "ligninContent",
              "termType": "property"
            },
            "value": 11.1
          }
        ]
      }
    ],
    "site": {
      "@type": "Site",
      "@id": "site"
    },
    "functionalUnit": "1 ha",
    "defaultMethodClassification": "modelled",
    "defaultMethodClassificationDescription": "fake cycle for testing purpose",
    "completeness": {
      "@type": "Completeness",
      "operations": false,
      "electricityFuel": false,
      "material": false,
      "transport": false,
      "fertiliser": false,
      "soilAmendments": true,
      "pesticidesAntibiotics": false,
      "water": true,
      "animalFeed": true,
      "liveAnimals": true,
      "other": false,
      "products": true,
      "cropResidue": true,
      "excreta": false,
      "waste": false
    },
    "dataPrivate": true
  },
  {
    "@type": "Cycle",
    "@id": "cycle_1969",
    "endDate": "1969-12-31",
    "products": [
      {
        "@type": "Product",
        "term": {
          "@type": "Term",
          "@id": "aboveGroundCropResidueLeftOnField",
          "termType": "cropResidue"
        },
        "value": [
          3561.626154652362
        ],
        "properties": [
          {
            "@type": "Property",
            "term": {
              "@type": "Term",
              "@id": "carbonContent",
              "termType": "property"
            },
            "value": 50
          },
          {
            "@type": "Property",
            "term": {
              "@type": "Term",
              "@id": "nitrogenContent",
              "termType": "property"
            },
            "value": 2.1
          },
          {
            "@type": "Property",
            "term": {
              "@type": "Term",
              "@id": "ligninContent",
              "termType": "property"
            },
            "value": 11.1
          }
        ]
      },
      {
        "@type": "Product",
        "term": {
          "@type": "Term",
          "@id": "belowGroundCropResidue",
          "termType": "cropResidue"
        },
        "value": [
          3561.626154652362
        ],
        "properties": [
          {
            "@type": "Property",
            "term": {
              "@type": "Term",
              "@id": "carbonContent",
              "termType": "property"
            },
            "value": 50
          },
          {
            "@type": "Property",
            "term": {
              "@type": "Term",
              "@id": "nitrogenContent",
              "termType": "property"
            },
            "value": 2.1
          },
          {
            "@type": "Property",
            "term": {
              "@type": "Term",
              "@id": "ligninContent",
              "termType": "property"
            },
            "value": 11.1
          }
        ]
      }
    ],
    "site": {
      "@type": "Site",
      "@id": "site"
    },
    "functionalUnit": "1 ha",
    "defaultMethodClassification": "modelled",
    "defaultMethodClassificationDescription": "fake cycle for testing purpose",
    "completeness": {
      "@type": "Completeness",
      "operations": false,
      "electricityFuel": false,
      "material": false,
      "transport": false,
      "fertiliser": false,
      "soilAmendments": true,
      "pesticidesAntibiotics": false,
      "water": true,
      "animalFeed": true,
      "liveAnimals": true,
      "other": false,
      "products": true,
      "cropResidue": true,
      "excreta": false,
      "waste": false
    },
    "dataPrivate": true
  },
  {
    "@type": "Cycle",
    "@id": "cycle_1970",
    "endDate": "1970-12-31",
    "products": [
      {
        "@type": "Product",
        "term": {
          "@type": "Term",
          "@id": "aboveGroundCropResidueLeftOnField",
          "termType": "cropResidue"
        },
        "value": [
          3568.6343303008707
        ],
        "properties": [
          {
            "@type": "Property",
            "term": {
              "@type": "Term",
              "@id": "carbonContent",
              "termType": "property"
            },
            "value": 50
          },
          {
            "@type": "Property",
            "term": {
              "@type": "Term",
              "@id": "nitrogenContent",
              "termType": "property"
            },
            "value": 2.1
          },
          {
            "@type": "Property",
            "term": {
              "@type": "Term",
              "@id": "ligninContent",
              "termType": "property"
            },
            "value": 11.1
          }
        ]
      },
      {
        "@type": "Product",
        "term": {
          "@type": "Term",
          "@id": "belowGroundCropResidue",
          "termType": "cropResidue"
        },
        "value": [
          3568.6343303008707
        ],
        "properties": [
          {
            "@type": "Property",
            "term": {
              "@type": "Term",
              "@id": "carbonContent",
              "termType": "property"
            },
            "value": 50
          },
          {
            "@type": "Property",
            "term": {
              "@type": "Term",
              "@id": "nitrogenContent",
              "termType": "property"
            },
            "value": 2.1
          },
          {
            "@type": "Property",
            "term": {
              "@type": "Term",
              "@id": "ligninContent",
              "termType": "property"
            },
            "value": 11.1
          }
        ]
      }
    ],
    "site": {
      "@type": "Site",
      "@id": "site"
    },
    "functionalUnit": "1 ha",
    "defaultMethodClassification": "modelled",
    "defaultMethodClassificationDescription": "fake cycle for testing purpose",
    "completeness": {
      "@type": "Completeness",
      "operations": false,
      "electricityFuel": false,
      "material": false,
      "transport": false,
      "fertiliser": false,
      "soilAmendments": true,
      "pesticidesAntibiotics": false,
      "water": true,
      "animalFeed": true,
      "liveAnimals": true,
      "other": false,
      "products": true,
      "cropResidue": true,
      "excreta": false,
      "waste": false
    },
    "dataPrivate": true
  },
  {
    "@type": "Cycle",
    "@id": "cycle_1971",
    "endDate": "1971-12-31",
    "products": [
      {
        "@type": "Product",
        "term": {
          "@type": "Term",
          "@id": "aboveGroundCropResidueLeftOnField",
          "termType": "cropResidue"
        },
        "value": [
          3718.2218235579207
        ],
        "properties": [
          {
            "@type": "Property",
            "term": {
              "@type": "Term",
              "@id": "carbonContent",
              "termType": "property"
            },
            "value": 50
          },
          {
            "@type": "Property",
            "term": {
              "@type": "Term",
              "@id": "nitrogenContent",
              "termType": "property"
            },
            "value": 2.1
          },
          {
            "@type": "Property",
            "term": {
              "@type": "Term",
              "@id": "ligninContent",
              "termType": "property"
            },
            "value": 11.1
          }
        ]
      },
      {
        "@type": "Product",
        "term": {
          "@type": "Term",
          "@id": "belowGroundCropResidue",
          "termType": "cropResidue"
        },
        "value": [
          3718.2218235579207
        ],
        "properties": [
          {
            "@type": "Property",
            "term": {
              "@type": "Term",
              "@id": "carbonContent",
              "termType": "property"
            },
            "value": 50
          },
          {
            "@type": "Property",
            "term": {
              "@type": "Term",
              "@id": "nitrogenContent",
              "termType": "property"
            },
            "value": 2.1
          },
          {
            "@type": "Property",
            "term": {
              "@type": "Term",
              "@id": "ligninContent",
              "termType": "property"
            },
            "value": 11.1
          }
        ]
      }
    ],
    "site": {
      "@type": "Site",
      "@id": "site"
    },
    "functionalUnit": "1 ha",
    "defaultMethodClassification": "modelled",
    "defaultMethodClassificationDescription": "fake cycle for testing purpose",
    "completeness": {
      "@type": "Completeness",
      "operations": false,
      "electricityFuel": false,
      "material": false,
      "transport": false,
      "fertiliser": false,
      "soilAmendments": true,
      "pesticidesAntibiotics": false,
      "water": true,
      "animalFeed": true,
      "liveAnimals": true,
      "other": false,
      "products": true,
      "cropResidue": true,
      "excreta": false,
      "waste": false
    },
    "dataPrivate": true
  },
  {
    "@type": "Cycle",
    "@id": "cycle_1972",
    "endDate": "1972-12-31",
    "products": [
      {
        "@type": "Product",
        "term": {
          "@type": "Term",
          "@id": "aboveGroundCropResidueLeftOnField",
          "termType": "cropResidue"
        },
        "value": [
          3096.251862302981
        ],
        "properties": [
          {
            "@type": "Property",
            "term": {
              "@type": "Term",
              "@id": "carbonContent",
              "termType": "property"
            },
            "value": 50
          },
          {
            "@type": "Property",
            "term": {
              "@type": "Term",
              "@id": "nitrogenContent",
              "termType": "property"
            },
            "value": 2.1
          },
          {
            "@type": "Property",
            "term": {
              "@type": "Term",
              "@id": "ligninContent",
              "termType": "property"
            },
            "value": 11.1
          }
        ]
      },
      {
        "@type": "Product",
        "term": {
          "@type": "Term",
          "@id": "belowGroundCropResidue",
          "termType": "cropResidue"
        },
        "value": [
          3096.251862302981
        ],
        "properties": [
          {
            "@type": "Property",
            "term": {
              "@type": "Term",
              "@id": "carbonContent",
              "termType": "property"
            },
            "value": 50
          },
          {
            "@type": "Property",
            "term": {
              "@type": "Term",
              "@id": "nitrogenContent",
              "termType": "property"
            },
            "value": 2.1
          },
          {
            "@type": "Property",
            "term": {
              "@type": "Term",
              "@id": "ligninContent",
              "termType": "property"
            },
            "value": 11.1
          }
        ]
      }
    ],
    "site": {
      "@type": "Site",
      "@id": "site"
    },
    "functionalUnit": "1 ha",
    "defaultMethodClassification": "modelled",
    "defaultMethodClassificationDescription": "fake cycle for testing purpose",
    "completeness": {
      "@type": "Completeness",
      "operations": false,
      "electricityFuel": false,
      "material": false,
      "transport": false,
      "fertiliser": false,
      "soilAmendments": true,
      "pesticidesAntibiotics": false,
      "water": true,
      "animalFeed": true,
      "liveAnimals": true,
      "other": false,
      "products": true,
      "cropResidue": true,
      "excreta": false,
      "waste": false
    },
    "dataPrivate": true
  },
  {
    "@type": "Cycle",
    "@id": "cycle_1973",
    "endDate": "1973-12-31",
    "products": [
      {
        "@type": "Product",
        "term": {
          "@type": "Term",
          "@id": "aboveGroundCropResidueLeftOnField",
          "termType": "cropResidue"
        },
        "value": [
          3701.547152705524
        ],
        "properties": [
          {
            "@type": "Property",
            "term": {
              "@type": "Term",
              "@id": "carbonContent",
              "termType": "property"
            },
            "value": 50
          },
          {
            "@type": "Property",
            "term": {
              "@type": "Term",
              "@id": "nitrogenContent",
              "termType": "property"
            },
            "value": 2.1
          },
          {
            "@type": "Property",
            "term": {
              "@type": "Term",
              "@id": "ligninContent",
              "termType": "property"
            },
            "value": 11.1
          }
        ]
      },
      {
        "@type": "Product",
        "term": {
          "@type": "Term",
          "@id": "belowGroundCropResidue",
          "termType": "cropResidue"
        },
        "value": [
          3701.547152705524
        ],
        "properties": [
          {
            "@type": "Property",
            "term": {
              "@type": "Term",
              "@id": "carbonContent",
              "termType": "property"
            },
            "value": 50
          },
          {
            "@type": "Property",
            "term": {
              "@type": "Term",
              "@id": "nitrogenContent",
              "termType": "property"
            },
            "value": 2.1
          },
          {
            "@type": "Property",
            "term": {
              "@type": "Term",
              "@id": "ligninContent",
              "termType": "property"
            },
            "value": 11.1
          }
        ]
      }
    ],
    "site": {
      "@type": "Site",
      "@id": "site"
    },
    "functionalUnit": "1 ha",
    "defaultMethodClassification": "modelled",
    "defaultMethodClassificationDescription": "fake cycle for testing purpose",
    "completeness": {
      "@type": "Completeness",
      "operations": false,
      "electricityFuel": false,
      "material": false,
      "transport": false,
      "fertiliser": false,
      "soilAmendments": true,
      "pesticidesAntibiotics": false,
      "water": true,
      "animalFeed": true,
      "liveAnimals": true,
      "other": false,
      "products": true,
      "cropResidue": true,
      "excreta": false,
      "waste": false
    },
    "dataPrivate": true
  },
  {
    "@type": "Cycle",
    "@id": "cycle_1974",
    "endDate": "1974-12-31",
    "products": [
      {
        "@type": "Product",
        "term": {
          "@type": "Term",
          "@id": "aboveGroundCropResidueLeftOnField",
          "termType": "cropResidue"
        },
        "value": [
          3635.3440163957166
        ],
        "properties": [
          {
            "@type": "Property",
            "term": {
              "@type": "Term",
              "@id": "carbonContent",
              "termType": "property"
            },
            "value": 50
          },
          {
            "@type": "Property",
            "term": {
              "@type": "Term",
              "@id": "nitrogenContent",
              "termType": "property"
            },
            "value": 2.1
          },
          {
            "@type": "Property",
            "term": {
              "@type": "Term",
              "@id": "ligninContent",
              "termType": "property"
            },
            "value": 11.1
          }
        ]
      },
      {
        "@type": "Product",
        "term": {
          "@type": "Term",
          "@id": "belowGroundCropResidue",
          "termType": "cropResidue"
        },
        "value": [
          3635.3440163957166
        ],
        "properties": [
          {
            "@type": "Property",
            "term": {
              "@type": "Term",
              "@id": "carbonContent",
              "termType": "property"
            },
            "value": 50
          },
          {
            "@type": "Property",
            "term": {
              "@type": "Term",
              "@id": "nitrogenContent",
              "termType": "property"
            },
            "value": 2.1
          },
          {
            "@type": "Property",
            "term": {
              "@type": "Term",
              "@id": "ligninContent",
              "termType": "property"
            },
            "value": 11.1
          }
        ]
      }
    ],
    "site": {
      "@type": "Site",
      "@id": "site"
    },
    "functionalUnit": "1 ha",
    "defaultMethodClassification": "modelled",
    "defaultMethodClassificationDescription": "fake cycle for testing purpose",
    "completeness": {
      "@type": "Completeness",
      "operations": false,
      "electricityFuel": false,
      "material": false,
      "transport": false,
      "fertiliser": false,
      "soilAmendments": true,
      "pesticidesAntibiotics": false,
      "water": true,
      "animalFeed": true,
      "liveAnimals": true,
      "other": false,
      "products": true,
      "cropResidue": true,
      "excreta": false,
      "waste": false
    },
    "dataPrivate": true
  },
  {
    "@type": "Cycle",
    "@id": "cycle_1975",
    "endDate": "1975-12-31",
    "products": [
      {
        "@type": "Product",
        "term": {
          "@type": "Term",
          "@id": "aboveGroundCropResidueLeftOnField",
          "termType": "cropResidue"
        },
        "value": [
          3805.034324964455
        ],
        "properties": [
          {
            "@type": "Property",
            "term": {
              "@type": "Term",
              "@id": "carbonContent",
              "termType": "property"
            },
            "value": 50
          },
          {
            "@type": "Property",
            "term": {
              "@type": "Term",
              "@id": "nitrogenContent",
              "termType": "property"
            },
            "value": 2.1
          },
          {
            "@type": "Property",
            "term": {
              "@type": "Term",
              "@id": "ligninContent",
              "termType": "property"
            },
            "value": 11.1
          }
        ]
      },
      {
        "@type": "Product",
        "term": {
          "@type": "Term",
          "@id": "belowGroundCropResidue",
          "termType": "cropResidue"
        },
        "value": [
          3805.034324964455
        ],
        "properties": [
          {
            "@type": "Property",
            "term": {
              "@type": "Term",
              "@id": "carbonContent",
              "termType": "property"
            },
            "value": 50
          },
          {
            "@type": "Property",
            "term": {
              "@type": "Term",
              "@id": "nitrogenContent",
              "termType": "property"
            },
            "value": 2.1
          },
          {
            "@type": "Property",
            "term": {
              "@type": "Term",
              "@id": "ligninContent",
              "termType": "property"
            },
            "value": 11.1
          }
        ]
      }
    ],
    "site": {
      "@type": "Site",
      "@id": "site"
    },
    "functionalUnit": "1 ha",
    "defaultMethodClassification": "modelled",
    "defaultMethodClassificationDescription": "fake cycle for testing purpose",
    "completeness": {
      "@type": "Completeness",
      "operations": false,
      "electricityFuel": false,
      "material": false,
      "transport": false,
      "fertiliser": false,
      "soilAmendments": true,
      "pesticidesAntibiotics": false,
      "water": true,
      "animalFeed": true,
      "liveAnimals": true,
      "other": false,
      "products": true,
      "cropResidue": true,
      "excreta": false,
      "waste": false
    },
    "dataPrivate": true
  },
  {
    "@type": "Cycle",
    "@id": "cycle_1976",
    "endDate": "1976-12-31",
    "products": [
      {
        "@type": "Product",
        "term": {
          "@type": "Term",
          "@id": "aboveGroundCropResidueLeftOnField",
          "termType": "cropResidue"
        },
        "value": [
          2766.341498446714
        ],
        "properties": [
          {
            "@type": "Property",
            "term": {
              "@type": "Term",
              "@id": "carbonContent",
              "termType": "property"
            },
            "value": 50
          },
          {
            "@type": "Property",
            "term": {
              "@type": "Term",
              "@id": "nitrogenContent",
              "termType": "property"
            },
            "value": 2.1
          },
          {
            "@type": "Property",
            "term": {
              "@type": "Term",
              "@id": "ligninContent",
              "termType": "property"
            },
            "value": 11.1
          }
        ]
      },
      {
        "@type": "Product",
        "term": {
          "@type": "Term",
          "@id": "belowGroundCropResidue",
          "termType": "cropResidue"
        },
        "value": [
          2766.341498446714
        ],
        "properties": [
          {
            "@type": "Property",
            "term": {
              "@type": "Term",
              "@id": "carbonContent",
              "termType": "property"
            },
            "value": 50
          },
          {
            "@type": "Property",
            "term": {
              "@type": "Term",
              "@id": "nitrogenContent",
              "termType": "property"
            },
            "value": 2.1
          },
          {
            "@type": "Property",
            "term": {
              "@type": "Term",
              "@id": "ligninContent",
              "termType": "property"
            },
            "value": 11.1
          }
        ]
      }
    ],
    "site": {
      "@type": "Site",
      "@id": "site"
    },
    "functionalUnit": "1 ha",
    "defaultMethodClassification": "modelled",
    "defaultMethodClassificationDescription": "fake cycle for testing purpose",
    "completeness": {
      "@type": "Completeness",
      "operations": false,
      "electricityFuel": false,
      "material": false,
      "transport": false,
      "fertiliser": false,
      "soilAmendments": true,
      "pesticidesAntibiotics": false,
      "water": true,
      "animalFeed": true,
      "liveAnimals": true,
      "other": false,
      "products": true,
      "cropResidue": true,
      "excreta": false,
      "waste": false
    },
    "dataPrivate": true
  },
  {
    "@type": "Cycle",
    "@id": "cycle_1977",
    "endDate": "1977-12-31",
    "products": [
      {
        "@type": "Product",
        "term": {
          "@type": "Term",
          "@id": "aboveGroundCropResidueLeftOnField",
          "termType": "cropResidue"
        },
        "value": [
          3119.9776030680205
        ],
        "properties": [
          {
            "@type": "Property",
            "term": {
              "@type": "Term",
              "@id": "carbonContent",
              "termType": "property"
            },
            "value": 50
          },
          {
            "@type": "Property",
            "term": {
              "@type": "Term",
              "@id": "nitrogenContent",
              "termType": "property"
            },
            "value": 2.1
          },
          {
            "@type": "Property",
            "term": {
              "@type": "Term",
              "@id": "ligninContent",
              "termType": "property"
            },
            "value": 11.1
          }
        ]
      },
      {
        "@type": "Product",
        "term": {
          "@type": "Term",
          "@id": "belowGroundCropResidue",
          "termType": "cropResidue"
        },
        "value": [
          3119.9776030680205
        ],
        "properties": [
          {
            "@type": "Property",
            "term": {
              "@type": "Term",
              "@id": "carbonContent",
              "termType": "property"
            },
            "value": 50
          },
          {
            "@type": "Property",
            "term": {
              "@type": "Term",
              "@id": "nitrogenContent",
              "termType": "property"
            },
            "value": 2.1
          },
          {
            "@type": "Property",
            "term": {
              "@type": "Term",
              "@id": "ligninContent",
              "termType": "property"
            },
            "value": 11.1
          }
        ]
      }
    ],
    "site": {
      "@type": "Site",
      "@id": "site"
    },
    "functionalUnit": "1 ha",
    "defaultMethodClassification": "modelled",
    "defaultMethodClassificationDescription": "fake cycle for testing purpose",
    "completeness": {
      "@type": "Completeness",
      "operations": false,
      "electricityFuel": false,
      "material": false,
      "transport": false,
      "fertiliser": false,
      "soilAmendments": true,
      "pesticidesAntibiotics": false,
      "water": true,
      "animalFeed": true,
      "liveAnimals": true,
      "other": false,
      "products": true,
      "cropResidue": true,
      "excreta": false,
      "waste": false
    },
    "dataPrivate": true
  },
  {
    "@type": "Cycle",
    "@id": "cycle_1978",
    "endDate": "1978-12-31",
    "products": [
      {
        "@type": "Product",
        "term": {
          "@type": "Term",
          "@id": "aboveGroundCropResidueLeftOnField",
          "termType": "cropResidue"
        },
        "value": [
          3200.5172384627103
        ],
        "properties": [
          {
            "@type": "Property",
            "term": {
              "@type": "Term",
              "@id": "carbonContent",
              "termType": "property"
            },
            "value": 50
          },
          {
            "@type": "Property",
            "term": {
              "@type": "Term",
              "@id": "nitrogenContent",
              "termType": "property"
            },
            "value": 2.1
          },
          {
            "@type": "Property",
            "term": {
              "@type": "Term",
              "@id": "ligninContent",
              "termType": "property"
            },
            "value": 11.1
          }
        ]
      },
      {
        "@type": "Product",
        "term": {
          "@type": "Term",
          "@id": "belowGroundCropResidue",
          "termType": "cropResidue"
        },
        "value": [
          3200.5172384627103
        ],
        "properties": [
          {
            "@type": "Property",
            "term": {
              "@type": "Term",
              "@id": "carbonContent",
              "termType": "property"
            },
            "value": 50
          },
          {
            "@type": "Property",
            "term": {
              "@type": "Term",
              "@id": "nitrogenContent",
              "termType": "property"
            },
            "value": 2.1
          },
          {
            "@type": "Property",
            "term": {
              "@type": "Term",
              "@id": "ligninContent",
              "termType": "property"
            },
            "value": 11.1
          }
        ]
      }
    ],
    "site": {
      "@type": "Site",
      "@id": "site"
    },
    "functionalUnit": "1 ha",
    "defaultMethodClassification": "modelled",
    "defaultMethodClassificationDescription": "fake cycle for testing purpose",
    "completeness": {
      "@type": "Completeness",
      "operations": false,
      "electricityFuel": false,
      "material": false,
      "transport": false,
      "fertiliser": false,
      "soilAmendments": true,
      "pesticidesAntibiotics": false,
      "water": true,
      "animalFeed": true,
      "liveAnimals": true,
      "other": false,
      "products": true,
      "cropResidue": true,
      "excreta": false,
      "waste": false
    },
    "dataPrivate": true
  },
  {
    "@type": "Cycle",
    "@id": "cycle_1979",
    "endDate": "1979-12-31",
    "products": [
      {
        "@type": "Product",
        "term": {
          "@type": "Term",
          "@id": "aboveGroundCropResidueLeftOnField",
          "termType": "cropResidue"
        },
        "value": [
          3561.626154652362
        ],
        "properties": [
          {
            "@type": "Property",
            "term": {
              "@type": "Term",
              "@id": "carbonContent",
              "termType": "property"
            },
            "value": 50
          },
          {
            "@type": "Property",
            "term": {
              "@type": "Term",
              "@id": "nitrogenContent",
              "termType": "property"
            },
            "value": 2.1
          },
          {
            "@type": "Property",
            "term": {
              "@type": "Term",
              "@id": "ligninContent",
              "termType": "property"
            },
            "value": 11.1
          }
        ]
      },
      {
        "@type": "Product",
        "term": {
          "@type": "Term",
          "@id": "belowGroundCropResidue",
          "termType": "cropResidue"
        },
        "value": [
          3561.626154652362
        ],
        "properties": [
          {
            "@type": "Property",
            "term": {
              "@type": "Term",
              "@id": "carbonContent",
              "termType": "property"
            },
            "value": 50
          },
          {
            "@type": "Property",
            "term": {
              "@type": "Term",
              "@id": "nitrogenContent",
              "termType": "property"
            },
            "value": 2.1
          },
          {
            "@type": "Property",
            "term": {
              "@type": "Term",
              "@id": "ligninContent",
              "termType": "property"
            },
            "value": 11.1
          }
        ]
      }
    ],
    "site": {
      "@type": "Site",
      "@id": "site"
    },
    "functionalUnit": "1 ha",
    "defaultMethodClassification": "modelled",
    "defaultMethodClassificationDescription": "fake cycle for testing purpose",
    "completeness": {
      "@type": "Completeness",
      "operations": false,
      "electricityFuel": false,
      "material": false,
      "transport": false,
      "fertiliser": false,
      "soilAmendments": true,
      "pesticidesAntibiotics": false,
      "water": true,
      "animalFeed": true,
      "liveAnimals": true,
      "other": false,
      "products": true,
      "cropResidue": true,
      "excreta": false,
      "waste": false
    },
    "dataPrivate": true
  },
  {
    "@type": "Cycle",
    "@id": "cycle_1980",
    "endDate": "1980-12-31",
    "products": [
      {
        "@type": "Product",
        "term": {
          "@type": "Term",
          "@id": "aboveGroundCropResidueLeftOnField",
          "termType": "cropResidue"
        },
        "value": [
          3730.842864041417
        ],
        "properties": [
          {
            "@type": "Property",
            "term": {
              "@type": "Term",
              "@id": "carbonContent",
              "termType": "property"
            },
            "value": 50
          },
          {
            "@type": "Property",
            "term": {
              "@type": "Term",
              "@id": "nitrogenContent",
              "termType": "property"
            },
            "value": 2.1
          },
          {
            "@type": "Property",
            "term": {
              "@type": "Term",
              "@id": "ligninContent",
              "termType": "property"
            },
            "value": 11.1
          }
        ]
      },
      {
        "@type": "Product",
        "term": {
          "@type": "Term",
          "@id": "belowGroundCropResidue",
          "termType": "cropResidue"
        },
        "value": [
          3730.842864041417
        ],
        "properties": [
          {
            "@type": "Property",
            "term": {
              "@type": "Term",
              "@id": "carbonContent",
              "termType": "property"
            },
            "value": 50
          },
          {
            "@type": "Property",
            "term": {
              "@type": "Term",
              "@id": "nitrogenContent",
              "termType": "property"
            },
            "value": 2.1
          },
          {
            "@type": "Property",
            "term": {
              "@type": "Term",
              "@id": "ligninContent",
              "termType": "property"
            },
            "value": 11.1
          }
        ]
      }
    ],
    "site": {
      "@type": "Site",
      "@id": "site"
    },
    "functionalUnit": "1 ha",
    "defaultMethodClassification": "modelled",
    "defaultMethodClassificationDescription": "fake cycle for testing purpose",
    "completeness": {
      "@type": "Completeness",
      "operations": false,
      "electricityFuel": false,
      "material": false,
      "transport": false,
      "fertiliser": false,
      "soilAmendments": true,
      "pesticidesAntibiotics": false,
      "water": true,
      "animalFeed": true,
      "liveAnimals": true,
      "other": false,
      "products": true,
      "cropResidue": true,
      "excreta": false,
      "waste": false
    },
    "dataPrivate": true
  },
  {
    "@type": "Cycle",
    "@id": "cycle_1981",
    "endDate": "1981-12-31",
    "products": [
      {
        "@type": "Product",
        "term": {
          "@type": "Term",
          "@id": "aboveGroundCropResidueLeftOnField",
          "termType": "cropResidue"
        },
        "value": [
          3520.848380904874
        ],
        "properties": [
          {
            "@type": "Property",
            "term": {
              "@type": "Term",
              "@id": "carbonContent",
              "termType": "property"
            },
            "value": 50
          },
          {
            "@type": "Property",
            "term": {
              "@type": "Term",
              "@id": "nitrogenContent",
              "termType": "property"
            },
            "value": 2.1
          },
          {
            "@type": "Property",
            "term": {
              "@type": "Term",
              "@id": "ligninContent",
              "termType": "property"
            },
            "value": 11.1
          }
        ]
      },
      {
        "@type": "Product",
        "term": {
          "@type": "Term",
          "@id": "belowGroundCropResidue",
          "termType": "cropResidue"
        },
        "value": [
          3520.848380904874
        ],
        "properties": [
          {
            "@type": "Property",
            "term": {
              "@type": "Term",
              "@id": "carbonContent",
              "termType": "property"
            },
            "value": 50
          },
          {
            "@type": "Property",
            "term": {
              "@type": "Term",
              "@id": "nitrogenContent",
              "termType": "property"
            },
            "value": 2.1
          },
          {
            "@type": "Property",
            "term": {
              "@type": "Term",
              "@id": "ligninContent",
              "termType": "property"
            },
            "value": 11.1
          }
        ]
      }
    ],
    "site": {
      "@type": "Site",
      "@id": "site"
    },
    "functionalUnit": "1 ha",
    "defaultMethodClassification": "modelled",
    "defaultMethodClassificationDescription": "fake cycle for testing purpose",
    "completeness": {
      "@type": "Completeness",
      "operations": false,
      "electricityFuel": false,
      "material": false,
      "transport": false,
      "fertiliser": false,
      "soilAmendments": true,
      "pesticidesAntibiotics": false,
      "water": true,
      "animalFeed": true,
      "liveAnimals": true,
      "other": false,
      "products": true,
      "cropResidue": true,
      "excreta": false,
      "waste": false
    },
    "dataPrivate": true
  },
  {
    "@type": "Cycle",
    "@id": "cycle_1982",
    "endDate": "1982-12-31",
    "products": [
      {
        "@type": "Product",
        "term": {
          "@type": "Term",
          "@id": "aboveGroundCropResidueLeftOnField",
          "termType": "cropResidue"
        },
        "value": [
          2770.995347846159
        ],
        "properties": [
          {
            "@type": "Property",
            "term": {
              "@type": "Term",
              "@id": "carbonContent",
              "termType": "property"
            },
            "value": 50
          },
          {
            "@type": "Property",
            "term": {
              "@type": "Term",
              "@id": "nitrogenContent",
              "termType": "property"
            },
            "value": 2.1
          },
          {
            "@type": "Property",
            "term": {
              "@type": "Term",
              "@id": "ligninContent",
              "termType": "property"
            },
            "value": 11.1
          }
        ]
      },
      {
        "@type": "Product",
        "term": {
          "@type": "Term",
          "@id": "belowGroundCropResidue",
          "termType": "cropResidue"
        },
        "value": [
          2770.995347846159
        ],
        "properties": [
          {
            "@type": "Property",
            "term": {
              "@type": "Term",
              "@id": "carbonContent",
              "termType": "property"
            },
            "value": 50
          },
          {
            "@type": "Property",
            "term": {
              "@type": "Term",
              "@id": "nitrogenContent",
              "termType": "property"
            },
            "value": 2.1
          },
          {
            "@type": "Property",
            "term": {
              "@type": "Term",
              "@id": "ligninContent",
              "termType": "property"
            },
            "value": 11.1
          }
        ]
      }
    ],
    "site": {
      "@type": "Site",
      "@id": "site"
    },
    "functionalUnit": "1 ha",
    "defaultMethodClassification": "modelled",
    "defaultMethodClassificationDescription": "fake cycle for testing purpose",
    "completeness": {
      "@type": "Completeness",
      "operations": false,
      "electricityFuel": false,
      "material": false,
      "transport": false,
      "fertiliser": false,
      "soilAmendments": true,
      "pesticidesAntibiotics": false,
      "water": true,
      "animalFeed": true,
      "liveAnimals": true,
      "other": false,
      "products": true,
      "cropResidue": true,
      "excreta": false,
      "waste": false
    },
    "dataPrivate": true
  },
  {
    "@type": "Cycle",
    "@id": "cycle_1983",
    "endDate": "1983-12-31",
    "products": [
      {
        "@type": "Product",
        "term": {
          "@type": "Term",
          "@id": "aboveGroundCropResidueLeftOnField",
          "termType": "cropResidue"
        },
        "value": [
          3556.991746095488
        ],
        "properties": [
          {
            "@type": "Property",
            "term": {
              "@type": "Term",
              "@id": "carbonContent",
              "termType": "property"
            },
            "value": 50
          },
          {
            "@type": "Property",
            "term": {
              "@type": "Term",
              "@id": "nitrogenContent",
              "termType": "property"
            },
            "value": 2.1
          },
          {
            "@type": "Property",
            "term": {
              "@type": "Term",
              "@id": "ligninContent",
              "termType": "property"
            },
            "value": 11.1
          }
        ]
      },
      {
        "@type": "Product",
        "term": {
          "@type": "Term",
          "@id": "belowGroundCropResidue",
          "termType": "cropResidue"
        },
        "value": [
          3556.991746095488
        ],
        "properties": [
          {
            "@type": "Property",
            "term": {
              "@type": "Term",
              "@id": "carbonContent",
              "termType": "property"
            },
            "value": 50
          },
          {
            "@type": "Property",
            "term": {
              "@type": "Term",
              "@id": "nitrogenContent",
              "termType": "property"
            },
            "value": 2.1
          },
          {
            "@type": "Property",
            "term": {
              "@type": "Term",
              "@id": "ligninContent",
              "termType": "property"
            },
            "value": 11.1
          }
        ]
      }
    ],
    "site": {
      "@type": "Site",
      "@id": "site"
    },
    "functionalUnit": "1 ha",
    "defaultMethodClassification": "modelled",
    "defaultMethodClassificationDescription": "fake cycle for testing purpose",
    "completeness": {
      "@type": "Completeness",
      "operations": false,
      "electricityFuel": false,
      "material": false,
      "transport": false,
      "fertiliser": false,
      "soilAmendments": true,
      "pesticidesAntibiotics": false,
      "water": true,
      "animalFeed": true,
      "liveAnimals": true,
      "other": false,
      "products": true,
      "cropResidue": true,
      "excreta": false,
      "waste": false
    },
    "dataPrivate": true
  }
]
