[
  {
    "@type": "Measurement",
    "term": {
      "@type": "Term",
      "@id": "organicCarbonPerHa"
    },
    "method": {
      "@type": "Term",
      "@id": "ipcc2019"
    },
    "value": [
      62750.28928005537
    ],
    "depthUpper": 0,
    "depthLower": 30,
    "dates": [
      "1969-12-31"
    ],
    "methodClassification": "tier 2 model"
  },
  {
    "@type": "Measurement",
    "term": {
      "@type": "Term",
      "@id": "organicCarbonPerHa"
    },
    "method": {
      "@type": "Term",
      "@id": "ipcc2019"
    },
    "value": [
      62886.52002595631
    ],
    "depthUpper": 0,
    "depthLower": 30,
    "dates": [
      "1970-12-31"
    ],
    "methodClassification": "tier 2 model"
  },
  {
    "@type": "Measurement",
    "term": {
      "@type": "Term",
      "@id": "organicCarbonPerHa"
    },
    "method": {
      "@type": "Term",
      "@id": "ipcc2019"
    },
    "value": [
      62522.42649024837
    ],
    "depthUpper": 0,
    "depthLower": 30,
    "dates": [
      "1971-12-31"
    ],
    "methodClassification": "tier 2 model"
  },
  {
    "@type": "Measurement",
    "term": {
      "@type": "Term",
      "@id": "organicCarbonPerHa"
    },
    "method": {
      "@type": "Term",
      "@id": "ipcc2019"
    },
    "value": [
      62657.333004994514
    ],
    "depthUpper": 0,
    "depthLower": 30,
    "dates": [
      "1972-12-31"
    ],
    "methodClassification": "tier 2 model"
  },
  {
    "@type": "Measurement",
    "term": {
      "@type": "Term",
      "@id": "organicCarbonPerHa"
    },
    "method": {
      "@type": "Term",
      "@id": "ipcc2019"
    },
    "value": [
      62319.80321044772
    ],
    "depthUpper": 0,
    "depthLower": 30,
    "dates": [
      "1973-12-31"
    ],
    "methodClassification": "tier 2 model"
  },
  {
    "@type": "Measurement",
    "term": {
      "@type": "Term",
      "@id": "organicCarbonPerHa"
    },
    "method": {
      "@type": "Term",
      "@id": "ipcc2019"
    },
    "value": [
      61911.47746384733
    ],
    "depthUpper": 0,
    "depthLower": 30,
    "dates": [
      "1974-12-31"
    ],
    "methodClassification": "tier 2 model"
  },
  {
    "@type": "Measurement",
    "term": {
      "@type": "Term",
      "@id": "organicCarbonPerHa"
    },
    "method": {
      "@type": "Term",
      "@id": "ipcc2019"
    },
    "value": [
      62167.01316163011
    ],
    "depthUpper": 0,
    "depthLower": 30,
    "dates": [
      "1975-12-31"
    ],
    "methodClassification": "tier 2 model"
  },
  {
    "@type": "Measurement",
    "term": {
      "@type": "Term",
      "@id": "organicCarbonPerHa"
    },
    "method": {
      "@type": "Term",
      "@id": "ipcc2019"
    },
    "value": [
      62271.262966152804
    ],
    "depthUpper": 0,
    "depthLower": 30,
    "dates": [
      "1976-12-31"
    ],
    "methodClassification": "tier 2 model"
  },
  {
    "@type": "Measurement",
    "term": {
      "@type": "Term",
      "@id": "organicCarbonPerHa"
    },
    "method": {
      "@type": "Term",
      "@id": "ipcc2019"
    },
    "value": [
      62265.851140397535
    ],
    "depthUpper": 0,
    "depthLower": 30,
    "dates": [
      "1977-12-31"
    ],
    "methodClassification": "tier 2 model"
  },
  {
    "@type": "Measurement",
    "term": {
      "@type": "Term",
      "@id": "organicCarbonPerHa"
    },
    "method": {
      "@type": "Term",
      "@id": "ipcc2019"
    },
    "value": [
      62031.504866175936
    ],
    "depthUpper": 0,
    "depthLower": 30,
    "dates": [
      "1978-12-31"
    ],
    "methodClassification": "tier 2 model"
  },
  {
    "@type": "Measurement",
    "term": {
      "@type": "Term",
      "@id": "organicCarbonPerHa"
    },
    "method": {
      "@type": "Term",
      "@id": "ipcc2019"
    },
    "value": [
      61972.52136957509
    ],
    "depthUpper": 0,
    "depthLower": 30,
    "dates": [
      "1979-12-31"
    ],
    "methodClassification": "tier 2 model"
  },
  {
    "@type": "Measurement",
    "term": {
      "@type": "Term",
      "@id": "organicCarbonPerHa"
    },
    "method": {
      "@type": "Term",
      "@id": "ipcc2019"
    },
    "value": [
      62114.136165642165
    ],
    "depthUpper": 0,
    "depthLower": 30,
    "dates": [
      "1980-12-31"
    ],
    "methodClassification": "tier 2 model"
  },
  {
    "@type": "Measurement",
    "term": {
      "@type": "Term",
      "@id": "organicCarbonPerHa"
    },
    "method": {
      "@type": "Term",
      "@id": "ipcc2019"
    },
    "value": [
      62082.072770980485
    ],
    "depthUpper": 0,
    "depthLower": 30,
    "dates": [
      "1981-12-31"
    ],
    "methodClassification": "tier 2 model"
  },
  {
    "@type": "Measurement",
    "term": {
      "@type": "Term",
      "@id": "organicCarbonPerHa"
    },
    "method": {
      "@type": "Term",
      "@id": "ipcc2019"
    },
    "value": [
      62112.32410091797
    ],
    "depthUpper": 0,
    "depthLower": 30,
    "dates": [
      "1982-12-31"
    ],
    "methodClassification": "tier 2 model"
  },
  {
    "@type": "Measurement",
    "term": {
      "@type": "Term",
      "@id": "organicCarbonPerHa"
    },
    "method": {
      "@type": "Term",
      "@id": "ipcc2019"
    },
    "value": [
      61914.92634485768
    ],
    "depthUpper": 0,
    "depthLower": 30,
    "dates": [
      "1983-12-31"
    ],
    "methodClassification": "tier 2 model"
  }
]
