{
  "id": "fake-impact",
  "type": "ImpactAssessment",
  "allocationMethod": "none required",
  "country": {
    "@id": "GADM-AUS",
    "@type": "Term",
    "name": "Australia"
  },
  "endDate": "2010",
  "functionalUnitQuantity": 1,
  "product": {
    "@type": "Product",
    "term": {
      "@type": "Term",
      "name": "Cereals, grain",
      "termType": "crop",
      "@id": "cerealGrain",
      "units": "kg"
    }
  },
  "source": {
    "id": "fake-source",
    "type": "Source"
  },
  "site": {
    "id": "fake-site",
    "type": "Site",
    "awareWaterBasinId": "5311"
  },
  "dataPrivate": false,
  "emissionsResourceUse": [
    {
      "@type": "Indicator",
      "term": {
        "@type": "Term",
        "@id": "freshwaterWithdrawalsDuringCycle",
        "name": "Freshwater withdrawals, during Cycle",
        "termType": "resourceUse",
        "units": "L"
      },
      "value": 360
    }
  ]
}
