{
  "id": "fake-cycle",
  "type": "Cycle",
  "dataPrivate": false,
  "site": {
    "id": "fake-site",
    "type": "Site"
  },
  "defaultSource": {
    "id": "fake-source",
    "type": "Source"
  },
  "functionalUnit": "relative",
  "endDate": "2012",
  "cycleDuration": 210,
  "products": [
    {
      "term": {
        "@id": "eggsHenInShell",
        "name": "Eggs, hen, in shell",
        "@type": "Term",
        "termType": "animalProduct",
        "units": "kg"
      },
      "value": [
        10
      ],
      "primary": true,
      "@type": "Product"
    },
    {
      "@type": "Product",
      "term": {
        "@type": "Term",
        "@id": "excretaPoultryKgN",
        "units": "kg N"
      },
      "value": [
        1.615473684210525
      ],
      "properties": [
        {
          "term": {
            "@type": "Term",
            "name": "Volatile solids content",
            "termType": "property",
            "@id": "volatileSolidsContent",
            "units": "%"
          },
          "value": 1490.6951744738524,
          "@type": "Property"
        }
      ]
    }
  ],
  "completeness": {
    "electricityFuel": true,
    "material": true,
    "fertiliser": true,
    "other": false,
    "pesticidesAntibiotics": false,
    "soilAmendments": true,
    "water": true,
    "products": true,
    "cropResidue": true,
    "animalFeed": false,
    "@type": "Completeness",
    "transport": false,
    "excreta": true,
    "waste": true,
    "liveAnimals": true,
    "operations": true
  },
  "defaultMethodClassification": "modelled",
  "defaultMethodClassificationDescription": "description"
}
