{
  "id": "fake-cycle",
  "type": "Cycle",
  "name": "fake cycle",
  "functionalUnit": "1 ha",
  "completeness": {
    "@type": "Completeness",
    "electricityFuel": true,
    "material": true,
    "fertiliser": true,
    "other": true,
    "pesticidesAntibiotics": true,
    "soilAmendments": true,
    "water": true,
    "products": true,
    "cropResidue": false,
    "animalFeed": true,
    "transport": false,
    "excreta": true,
    "waste": true,
    "liveAnimals": true,
    "operations": true
  },
  "defaultMethodClassification": "modelled",
  "dataPrivate": true,
  "endDate": "2009",
  "cycleDuration": 365,
  "site": {
    "id": "fake-site",
    "type": "Site",
    "siteType": "cropland",
    "country": {
      "@id": "GADM-BRA",
      "@type": "Term",
      "name": "Brazil"
    }
  },
  "practices": [
    {
      "@type": "Practice",
      "term": {
        "@type": "Term",
        "@id": "residueRemoved",
        "termType": "cropResidueManagement"
      },
      "value": [
        80
      ],
      "added": [
        "value"
      ],
      "model": {
        "@type": "Term",
        "@id": "koble2014"
      }
    },
    {
      "@type": "Practice",
      "term": {
        "@type": "Term",
        "@id": "residueLeftOnField",
        "termType": "cropResidueManagement"
      },
      "value": [
        20
      ]
    },
    {
      "@type": "Practice",
      "term": {
        "@type": "Term",
        "@id": "residueBurnt",
        "termType": "cropResidueManagement"
      },
      "value": [
        25
      ],
      "added": [
        "value"
      ],
      "model": {
        "@type": "Term",
        "@id": "koble2014"
      }
    }
  ],
  "defaultMethodClassificationDescription": "description"
}
