[
  {
    "@type": "Emission",
    "term": {
      "@type": "Term",
      "@id": "no3ToGroundwaterOrganicFertiliser"
    },
    "methodModel": {
      "@type": "Term",
      "@id": "ipcc2019"
    },
    "value": [
      18.65272365975899
    ],
    "min": [
      0.7771968191566246
    ],
    "max": [
      56.73536779843359
    ],
    "sd": [
      13.989542744819243
    ],
    "statsDefinition": "modelled",
    "methodTier": "tier 1"
  }
]
