{
  "@type": "Indicator",
  "term": {
    "@id": "damageToFreshwaterEcosystemsPdfYear",
    "@type": "Term"
  },
  "methodModel": {
    "@id": "lcImpactCertainEffectsInfinite",
    "@type": "Term"
  },
  "value": 0.7
}
