{
  "id": "fake-cycle",
  "type": "Cycle",
  "name": "fake cycle",
  "dataPrivate": false,
  "functionalUnit": "1 ha",
  "endDate": "2009",
  "cycleDuration": 365,
  "defaultSource": {
    "id": "fake-source",
    "type": "Source"
  },
  "site": {
    "id": "fake-site",
    "type": "Site",
    "siteType": "cropland"
  },
  "inputs": [
    {
      "term": {
        "@type": "Term",
        "name": "Maize, grain",
        "termType": "crop",
        "@id": "maizeGrain",
        "units": "kg",
        "defaultProperties": [
          {
            "term": {
              "@type": "Term",
              "name": "Dry matter",
              "termType": "property",
              "@id": "dryMatter",
              "units": "%"
            },
            "value": 87,
            "@type": "Property"
          }
        ]
      },
      "properties": [
        {
          "@type": "Property",
          "term": {
            "@id": "nitrogenContent",
            "@type": "Term",
            "name": "Nitrogen content",
            "units": "%",
            "termType": "property"
          },
          "value": 50
        }
      ],
      "value": [
        1.57894736842105
      ],
      "isAnimalFeed": true,
      "@type": "Input"
    },
    {
      "term": {
        "@type": "Term",
        "name": "Wheat, grain",
        "termType": "crop",
        "@id": "wheatGrain",
        "units": "kg",
        "defaultProperties": [
          {
            "term": {
              "@type": "Term",
              "name": "Dry matter",
              "termType": "property",
              "@id": "dryMatter",
              "units": "%"
            },
            "value": 87,
            "@type": "Property"
          }
        ]
      },
      "properties": [
        {
          "@type": "Property",
          "term": {
            "@id": "nitrogenContent",
            "@type": "Term",
            "name": "Nitrogen content",
            "units": "%",
            "termType": "property"
          },
          "value": 50
        }
      ],
      "value": [
        0.736842105263158
      ],
      "isAnimalFeed": true,
      "@type": "Input"
    },
    {
      "term": {
        "@type": "Term",
        "name": "Barley, grain",
        "termType": "crop",
        "@id": "barleyGrainInHusk",
        "units": "kg",
        "defaultProperties": [
          {
            "term": {
              "@type": "Term",
              "name": "Dry matter",
              "termType": "property",
              "@id": "dryMatter",
              "units": "%"
            },
            "value": 87,
            "@type": "Property"
          }
        ]
      },
      "properties": [
        {
          "@type": "Property",
          "term": {
            "@id": "nitrogenContent",
            "@type": "Term",
            "name": "Nitrogen content",
            "units": "%",
            "termType": "property"
          },
          "value": 50
        }
      ],
      "value": [
        0.421052631578947
      ],
      "isAnimalFeed": true,
      "@type": "Input"
    },
    {
      "term": {
        "@type": "Term",
        "name": "Soybean, grain",
        "termType": "crop",
        "@id": "soybeanSeedWhole",
        "units": "kg",
        "defaultProperties": [
          {
            "term": {
              "@type": "Term",
              "name": "Dry matter",
              "termType": "property",
              "@id": "dryMatter",
              "units": "%"
            },
            "value": 88.8,
            "@type": "Property"
          }
        ]
      },
      "properties": [
        {
          "@type": "Property",
          "term": {
            "@id": "nitrogenContent",
            "@type": "Term",
            "name": "Nitrogen content",
            "units": "%",
            "termType": "property"
          },
          "value": 50
        }
      ],
      "value": [
        0.842105263157895
      ],
      "isAnimalFeed": true,
      "@type": "Input"
    }
  ],
  "products": [
    {
      "type": "Product",
      "term": {
        "@type": "Term",
        "@id": "meatChickenColdCarcassWeight",
        "termType": "animalProduct",
        "units": "kg cold carcass weight",
        "defaultProperties": [
          {
            "type": "Property",
            "term": {
              "@type": "Term",
              "@id": "processingConversionLiveweightToColdCarcassWeight",
              "units": "%"
            },
            "value": 72.3
          },
          {
            "@type": "Property",
            "term": {
              "@id": "nitrogenContent",
              "@type": "Term",
              "name": "Nitrogen content",
              "units": "%",
              "termType": "property"
            },
            "value": 2.96
          }
        ]
      },
      "value": [
        1.3014
      ]
    }
  ],
  "completeness": {
    "@type": "Completeness",
    "electricityFuel": true,
    "material": true,
    "fertiliser": true,
    "other": true,
    "pesticidesAntibiotics": true,
    "soilAmendments": true,
    "water": true,
    "products": true,
    "cropResidue": true,
    "animalFeed": true,
    "transport": false,
    "excreta": true,
    "waste": true,
    "liveAnimals": true,
    "operations": true
  },
  "defaultMethodClassification": "modelled",
  "defaultMethodClassificationDescription": "description"
}
