[
  {
    "term": {
      "@id": "genericCropSeed",
      "@type": "Term",
      "name": "Generic Crop, seed",
      "termType": "crop"
    },
    "value": [
      2900
    ],
    "economicValueShare": 100,
    "properties": [
      {
        "@type": "Property",
        "term": {
          "@id": "rootingDepth",
          "@type": "Term"
        },
        "value": 1.0625,
        "methodModel": {
          "@type": "Term",
          "@id": "globalCropWaterModel2008"
        }
      }
    ],
    "@type": "Product"
  }
]
