[
  {
    "@type": "Product",
    "term": {
      "@type": "Term",
      "@id": "excretaBeefCattleFeedlotFedKgN"
    },
    "value": [
      786.75
    ],
    "model": {
      "@type": "Term",
      "@id": "pooreNemecek2018"
    }
  }
]
