[
  {
    "@type": "Product",
    "term": {
      "@id": "aboveGroundCropResidueTotal",
      "@type": "Term",
      "termType": "cropResidue"
    },
    "properties": [
      {
        "@type": "Property",
        "term": {
          "@type": "Term",
          "@id": "ligninContent"
        },
        "value": 8.59951669595782,
        "methodModel": {
          "@type": "Term",
          "@id": "ipcc2019"
        }
      }
    ]
  },
  {
    "@type": "Product",
    "term": {
      "@id": "belowGroundCropResidue",
      "@type": "Term",
      "termType": "cropResidue"
    },
    "properties": [
      {
        "@type": "Property",
        "term": {
          "@type": "Term",
          "@id": "ligninContent"
        },
        "value": 8.712959087003458,
        "methodModel": {
          "@type": "Term",
          "@id": "ipcc2019"
        }
      }
    ]
  }
]
