{
  "@type": "Indicator",
  "term": {
    "@type": "Term",
    "@id": "damageToFreshwaterEcosystemsClimateChange"
  },
  "methodModel": {
    "@type": "Term",
    "@id": "lcImpactAllEffectsInfinite"
  },
  "value": 1.3891170462620368e-15
}
