{
  "id": "fake-cycle",
  "type": "Cycle",
  "name": "fake cycle",
  "functionalUnit": "1 ha",
  "defaultSource": {
    "id": "fake-source",
    "type": "Source"
  },
  "dataPrivate": false,
  "endDate": "2009",
  "cycleDuration": 365,
  "site": {
    "id": "fake-site",
    "type": "Site",
    "defaultSource": {
      "id": "olcc1ydvrt",
      "type": "Source"
    },
    "dataPrivate": false,
    "name": "Field -11.77, -45.72",
    "country": {
      "@id": "GADM-BRA",
      "@type": "Term",
      "name": "Brazil"
    },
    "latitude": -11.77,
    "longitude": -45.72,
    "siteType": "cropland"
  },
  "products": [
    {
      "term": {
        "@type": "Term",
        "name": "Wheat, grain",
        "termType": "crop",
        "@id": "wheatGrain",
        "units": "kg"
      },
      "value": [
        2616.5
      ],
      "properties": [
        {
          "term": {
            "@type": "Term",
            "name": "Dry matter",
            "termType": "property",
            "@id": "dryMatter",
            "units": "%"
          },
          "value": 88,
          "@type": "Property"
        }
      ],
      "variety": "Gautam",
      "primary": true,
      "@type": "Product"
    },
    {
      "term": {
        "@type": "Term",
        "name": "Wheat, straw",
        "termType": "crop",
        "@id": "wheatStraw",
        "units": "kg",
        "defaultProperties": [
          {
            "term": {
              "@type": "Term",
              "name": "Dry matter",
              "termType": "property",
              "@id": "dryMatter",
              "units": "%"
            },
            "value": 91,
            "@type": "Property"
          }
        ]
      },
      "value": [
        2939
      ],
      "@type": "Product"
    }
  ],
  "completeness": {
    "@type": "Completeness",
    "electricityFuel": true,
    "material": true,
    "fertiliser": true,
    "other": true,
    "pesticidesAntibiotics": true,
    "soilAmendments": true,
    "water": true,
    "products": true,
    "cropResidue": false,
    "animalFeed": true,
    "transport": false,
    "excreta": true,
    "waste": true,
    "liveAnimals": true,
    "operations": true
  },
  "defaultMethodClassification": "modelled",
  "defaultMethodClassificationDescription": "description"
}
