[
  {
    "term": {
      "@id": "ch4ToAirWasteTreatment",
      "@type": "Term"
    },
    "value": [
      0.235924
    ],
    "methodTier": "tier 1",
    "@type": "Emission",
    "methodModel": {
      "@type": "Term",
      "@id": "schmidt2007"
    }
  }
]
