{
  "@type": "Indicator",
  "term": {
    "@type": "Term",
    "@id": "damageToTerrestrialEcosystemsTotalLandUseEffects"
  },
  "methodModel": {
    "@type": "Term",
    "@id": "chaudharyBrooks2018"
  },
  "value": 9.358391825855174e-12
}
