{
  "@type": "Indicator",
  "term": {
    "@type": "Term",
    "@id": "damageToHumanHealthClimateChange"
  },
  "methodModel": {
    "@type": "Term",
    "@id": "lcImpactCertainEffectsInfinite"
  },
  "value": 0.0000010869402353391512
}
