{
  "@id": "fake-site",
  "@type": "Site",
  "siteType": "cropland",
  "country": {
    "@id": "GADM-FRA",
    "@type": "Term",
    "name": "France",
    "termType": "region"
  },
  "measurements": [
    {
      "@type": "Measurement",
      "term": {
        "@type": "Term",
        "@id": "soilPh",
        "name": "Soil pH",
        "units": "unitless"
      },
      "value": [
        7
      ],
      "methodClassification": "on-site physical measurement"
    },
    {
      "@type": "Measurement",
      "term": {
        "@type": "Term",
        "@id": "organicCarbonPerKgSoil",
        "name": "Organic carbon (per kg soil)",
        "units": "g C / kg soil"
      },
      "value": [
        10
      ],
      "methodClassification": "on-site physical measurement"
    },
    {
      "@type": "Measurement",
      "term": {
        "@type": "Term",
        "@id": "clayContent",
        "name": "Clay content",
        "units": "%"
      },
      "value": [
        5
      ],
      "methodClassification": "on-site physical measurement"
    },
    {
      "@type": "Measurement",
      "term": {
        "@type": "Term",
        "@id": "soilPh",
        "name": "Soil pH",
        "units": "unitless"
      },
      "value": [
        6.4
      ],
      "depthUpper": 0,
      "depthLower": 30,
      "methodClassification": "on-site physical measurement"
    },
    {
      "@type": "Measurement",
      "term": {
        "@type": "Term",
        "@id": "organicCarbonPerKgSoil",
        "name": "Organic carbon (per kg soil)",
        "units": "g C / kg soil"
      },
      "value": [
        16
      ],
      "depthUpper": 0,
      "depthLower": 30,
      "methodClassification": "on-site physical measurement"
    },
    {
      "@type": "Measurement",
      "term": {
        "@type": "Term",
        "@id": "clayContent",
        "name": "Clay content",
        "units": "%"
      },
      "value": [
        13
      ],
      "depthUpper": 0,
      "depthLower": 30,
      "methodClassification": "on-site physical measurement"
    },
    {
      "@type": "Measurement",
      "term": {
        "@type": "Term",
        "@id": "soilPh",
        "name": "Soil pH",
        "units": "unitless"
      },
      "value": [
        6.4
      ],
      "depthUpper": 10,
      "depthLower": 40,
      "methodClassification": "on-site physical measurement"
    },
    {
      "@type": "Measurement",
      "term": {
        "@type": "Term",
        "@id": "organicCarbonPerKgSoil",
        "name": "Organic carbon (per kg soil)",
        "units": "g C / kg soil"
      },
      "value": [
        16
      ],
      "depthUpper": 20,
      "depthLower": 30,
      "methodClassification": "on-site physical measurement"
    },
    {
      "@type": "Measurement",
      "term": {
        "@type": "Term",
        "@id": "clayContent",
        "name": "Clay content",
        "units": "%"
      },
      "value": [
        13
      ],
      "depthUpper": 0,
      "depthLower": 50,
      "methodClassification": "on-site physical measurement"
    }
  ],
  "dataPrivate": true
}
