{
  "id": "fake-impact",
  "type": "ImpactAssessment",
  "allocationMethod": "none required",
  "country": {
    "@id": "GADM-NPL",
    "@type": "Term",
    "name": "Nepal"
  },
  "cycle": {
    "id": "fake-cycle",
    "type": "Cycle",
    "functionalUnit": "1 ha",
    "cycleDuration": 182.5,
    "site": {
      "id": "fake-site",
      "type": "Site",
      "siteType": "cropland"
    },
    "inputs": [
      {
        "term": {
          "@type": "Term",
          "name": "Wheat, grain",
          "termType": "crop",
          "@id": "wheatGrain",
          "units": "kg"
        },
        "value": [
          40
        ],
        "@type": "Input",
        "impactAssessment": {
          "@id": "wheatGrain-australia-2001-2010",
          "@type": "ImpactAssessment"
        },
        "impactAssessmentIsProxy": true
      },
      {
        "term": {
          "@type": "Term",
          "name": "Diesel",
          "termType": "fuel",
          "@id": "diesel",
          "units": "kg"
        },
        "value": [
          18.148
        ],
        "@type": "Input",
        "impactAssessment": {
          "@id": "lepizrv6wt5h",
          "@type": "ImpactAssessment"
        },
        "impactAssessmentIsProxy": true
      }
    ],
    "defaultMethodClassificationDescription": "description"
  },
  "emissionsResourceUse": [
    {
      "@type": "Indicator",
      "term": {
        "@id": "landTransformationFromForest20YearAverageDuringCycle",
        "@type": "Term",
        "name": "Land transformation, from forest, 20 year average, during Cycle",
        "termType": "resourceUse",
        "units": "m2*year"
      },
      "value": 10
    }
  ],
  "endDate": "2010",
  "functionalUnitQuantity": 1,
  "product": {
    "@type": "Product",
    "term": {
      "@id": "wheatGrain",
      "@type": "Term",
      "termType": "crop"
    }
  },
  "source": {
    "id": "fake-source",
    "type": "Source"
  },
  "dataPrivate": false
}
