{
  "id": "fake-cycle",
  "type": "Cycle",
  "name": "Rice, grain (paddy) - Gambia - 2018",
  "site": {
    "id": "fake-site",
    "type": "Site",
    "country": {
      "@type": "Term",
      "name": "Gambia",
      "@id": "GADM-GMB"
    }
  },
  "defaultSource": {
    "id": "fake-source",
    "type": "Source"
  },
  "endDate": "2018",
  "functionalUnit": "1 ha",
  "cycleDuration": 365,
  "inputs": [
    {
      "term": {
        "@type": "Term",
        "name": "Green manure (kg mass)",
        "termType": "organicFertiliser",
        "@id": "greenManureKgMass",
        "units": "kg"
      },
      "value": [
        3700
      ],
      "@type": "Input"
    }
  ],
  "products": [
    {
      "term": {
        "@type": "Term",
        "termType": "crop",
        "name": "Rice, grain (paddy)",
        "units": "kg",
        "@id": "riceGrainInHuskFlooded"
      },
      "value": [
        7600
      ],
      "primary": true,
      "@type": "Product"
    },
    {
      "term": {
        "@type": "Term",
        "name": "Above ground crop residue, incorporated",
        "termType": "cropResidue",
        "@id": "aboveGroundCropResidueIncorporated",
        "units": "kg dry matter"
      },
      "value": [
        2000
      ],
      "@type": "Product"
    }
  ],
  "practices": [
    {
      "term": {
        "@type": "Term",
        "name": "Cropping Duration",
        "termType": "landUseManagement",
        "@id": "croppingDuration",
        "units": "Days"
      },
      "value": [
        113
      ],
      "min": [
        74
      ],
      "max": [
        152
      ],
      "sd": [
        19.5
      ],
      "statsDefinition": "modelled",
      "@type": "Practice"
    },
    {
      "term": {
        "@type": "Term",
        "termType": "waterRegime",
        "@id": "irrigatedMultipleDrainagePeriods"
      },
      "@type": "Practice"
    },
    {
      "term": {
        "@type": "Term",
        "termType": "waterRegime",
        "@id": "nonFloodedPreSeasonLessThan180Days"
      },
      "@type": "Practice"
    },
    {
      "term": {
        "@type": "Term",
        "termType": "cropResidueManagement",
        "@id": "residueIncorporatedMoreThan30DaysBeforeCultivation"
      },
      "@type": "Practice"
    }
  ],
  "dataPrivate": true,
  "completeness": {
    "electricityFuel": false,
    "material": false,
    "fertiliser": true,
    "other": false,
    "pesticidesAntibiotics": true,
    "soilAmendments": true,
    "water": false,
    "products": true,
    "cropResidue": false,
    "animalFeed": true,
    "@type": "Completeness",
    "transport": false,
    "excreta": true,
    "waste": true,
    "liveAnimals": true,
    "operations": true
  },
  "defaultMethodClassification": "modelled",
  "defaultMethodClassificationDescription": "description"
}
