[
  {
    "transformationId": "tr-1",
    "term": {
      "@type": "Term",
      "name": "Pit storage below animal confinements",
      "termType": "excretaManagement",
      "@id": "pitStorageBelowAnimalConfinements"
    },
    "transformedShare": 50,
    "inputs": [
      {
        "term": {
          "@type": "Term",
          "termType": "excreta",
          "@id": "excretaPigsKgN",
          "units": "kg N"
        },
        "@type": "Input",
        "properties": [
          {
            "term": {
              "@type": "Term",
              "@id": "density"
            },
            "value": 10,
            "@type": "Property"
          },
          {
            "@type": "Property",
            "term": {
              "@type": "Term",
              "@id": "dryMatter"
            },
            "value": 74
          }
        ],
        "fromCycle": true
      }
    ],
    "@type": "Transformation"
  }
]
